x,X1918,Thai.16,TX.91,SP.83
1,5.21,5.116,4.208,4.895
2,10.362,10.217,6.867,8.298
3,62.52,77.627,20.894,31.554
5,123.668,87.753,24.068,39.925
7,156.831,121.494,13.805,84.024
9,108.987,123.078,22.149,29.857
